Country: Germany
…
germany_districts_w_state <- germany_districts |> 
  mutate(
    state = germany_states$nuts_name[state_nmbrs]
  )
germany_districts_w_state |> select(nuts_name, state)

# A tibble: 456 × 2
   nuts_name              state                 
   <chr>                  <chr>                 
 1 Deutschland            Baden-Württemberg     
 2 Baden-Württemberg      Baden-Württemberg     
 3 Hamburg                Hamburg               
 4 Hessen                 Hessen                
 5 Mecklenburg-Vorpommern Mecklenburg-Vorpommern
 6 Niedersachsen          Niedersachsen         
 7 Nordrhein-Westfalen    Nordrhein-Westfalen   
 8 Rheinland-Pfalz        Rheinland-Pfalz       
 9 Saarland               Saarland              
10 Sachsen                Sachsen               
# ℹ 446 more rows
…
